{
  "AWSEBDockerrunVersion": "1",
  "Image": {
    "Name": "165071321881.dkr.ecr.eu-central-1.amazonaws.com/portfolio_sync",
    "Update": "true"
  },
  "Ports": [
    {
      "ContainerPort": "5005"
    }
  ]
}
